\beamer@endinputifotherversion {3.10pt}
\headcommand {\slideentry {0}{0}{1}{1/1}{}{0}}
\headcommand {\beamer@framepages {1}{1}}
\headcommand {\slideentry {0}{0}{2}{2/2}{}{0}}
\headcommand {\beamer@framepages {2}{2}}
\headcommand {\sectionentry {1}{Introduction}{3}{Introduction}{0}}
\headcommand {\beamer@sectionpages {1}{2}}
\headcommand {\beamer@subsectionpages {1}{2}}
\headcommand {\slideentry {1}{0}{3}{3/3}{}{0}}
\headcommand {\beamer@framepages {3}{3}}
\headcommand {\sectionentry {2}{Data Set}{4}{Data Set}{0}}
\headcommand {\beamer@sectionpages {3}{3}}
\headcommand {\beamer@subsectionpages {3}{3}}
\headcommand {\beamer@subsectionentry {0}{2}{1}{4}{Data Set Overview}}\headcommand {\beamer@subsectionpages {4}{3}}
\headcommand {\slideentry {2}{1}{1}{4/4}{Data Set Overview}{0}}
\headcommand {\beamer@framepages {4}{4}}
\headcommand {\beamer@subsectionentry {0}{2}{2}{5}{Data Anomalies}}\headcommand {\beamer@subsectionpages {4}{4}}
\headcommand {\slideentry {2}{2}{1}{5/5}{Data Anomalies}{0}}
\headcommand {\beamer@framepages {5}{5}}
\headcommand {\sectionentry {3}{Model Construction}{6}{Model Construction}{0}}
\headcommand {\beamer@sectionpages {4}{5}}
\headcommand {\beamer@subsectionpages {5}{5}}
\headcommand {\slideentry {3}{0}{2}{6/6}{}{0}}
\headcommand {\beamer@framepages {6}{6}}
\headcommand {\beamer@subsectionentry {0}{3}{1}{7}{Logistic Regression}}\headcommand {\beamer@subsectionpages {6}{6}}
\headcommand {\slideentry {3}{1}{1}{7/7}{Logistic Regression}{0}}
\headcommand {\beamer@framepages {7}{7}}
\headcommand {\slideentry {3}{1}{2}{8/8}{Logistic Regression}{0}}
\headcommand {\beamer@framepages {8}{8}}
\headcommand {\beamer@subsectionentry {0}{3}{2}{9}{Naive Bayesian}}\headcommand {\beamer@subsectionpages {7}{8}}
\headcommand {\slideentry {3}{2}{1}{9/9}{Naive Bayesian}{0}}
\headcommand {\beamer@framepages {9}{9}}
\headcommand {\slideentry {3}{2}{2}{10/10}{Naive Bayesian}{0}}
\headcommand {\beamer@framepages {10}{10}}
\headcommand {\sectionentry {4}{Model Evaluation}{11}{Model Evaluation}{0}}
\headcommand {\beamer@sectionpages {6}{10}}
\headcommand {\beamer@subsectionpages {9}{10}}
\headcommand {\beamer@subsectionentry {0}{4}{1}{11}{Experiment Setting}}\headcommand {\beamer@subsectionpages {11}{10}}
\headcommand {\slideentry {4}{1}{1}{11/11}{Experiment Setting}{0}}
\headcommand {\beamer@framepages {11}{11}}
\headcommand {\slideentry {4}{1}{2}{12/12}{Experiment Setting}{0}}
\headcommand {\beamer@framepages {12}{12}}
\headcommand {\beamer@subsectionentry {0}{4}{2}{13}{Experiment Results}}\headcommand {\beamer@subsectionpages {11}{12}}
\headcommand {\slideentry {4}{2}{1}{13/13}{Experiment Results}{0}}
\headcommand {\beamer@framepages {13}{13}}
\headcommand {\sectionentry {5}{Model Interpretation}{14}{Model Interpretation}{0}}
\headcommand {\beamer@sectionpages {11}{13}}
\headcommand {\beamer@subsectionpages {13}{13}}
\headcommand {\beamer@subsectionentry {0}{5}{1}{14}{Logistic Regression}}\headcommand {\beamer@subsectionpages {14}{13}}
\headcommand {\slideentry {5}{1}{1}{14/14}{Logistic Regression}{0}}
\headcommand {\beamer@framepages {14}{14}}
\headcommand {\beamer@subsectionentry {0}{5}{2}{15}{Naive Bayesian}}\headcommand {\beamer@subsectionpages {14}{14}}
\headcommand {\slideentry {5}{2}{1}{15/15}{Naive Bayesian}{0}}
\headcommand {\beamer@framepages {15}{15}}
\headcommand {\sectionentry {6}{Conclusion}{16}{Conclusion}{0}}
\headcommand {\beamer@sectionpages {14}{15}}
\headcommand {\beamer@subsectionpages {15}{15}}
\headcommand {\slideentry {6}{0}{2}{16/16}{}{0}}
\headcommand {\beamer@framepages {16}{16}}
\headcommand {\slideentry {6}{0}{3}{17/17}{}{0}}
\headcommand {\beamer@framepages {17}{17}}
\headcommand {\beamer@partpages {1}{17}}
\headcommand {\beamer@subsectionpages {16}{17}}
\headcommand {\beamer@sectionpages {16}{17}}
\headcommand {\beamer@documentpages {17}}
\headcommand {\def \inserttotalframenumber {17}}
